<?xml version="1.0" standalone="no"?>
<!DOCTYPE svg PUBLIC "-//W3C//DTD SVG 1.1//EN" "http://www.w3.org/Graphics/SVG/1.1/DTD/svg11.dtd" >
<svg xmlns="http://www.w3.org/2000/svg">
<metadata>
This is a custom SVG webfont generated by Font Squirrel.
Copyright   :  2008 Microsoft Corporation All Rights Reserved
Foundry     : Microsoft Corporation
Foundry URL : httpwwwmicrosoftcomtypographyfonts
</metadata>
<defs>
<font id="SegoeUINegreta" horiz-adv-x="1178" >
<font-face units-per-em="2048" ascent="1638" descent="-410" />
<missing-glyph horiz-adv-x="565" />
<glyph unicode=" "  horiz-adv-x="565" />
<glyph unicode="&#x09;" horiz-adv-x="565" />
<glyph unicode="&#xa0;" horiz-adv-x="565" />
<glyph unicode="!" horiz-adv-x="670" d="M152 143q0 72 52.5 118t131.5 46q80 0 131 -46.5t51 -117.5q0 -72 -50.5 -119t-131.5 -47q-80 0 -132 48.5t-52 117.5zM168 1434h332l-39 -988h-256z" />
<glyph unicode="&#x22;" horiz-adv-x="1010" d="M176 1452h262l-30 -442h-203zM571 1452h263l-31 -444h-201z" />
<glyph unicode="#" horiz-adv-x="1213" d="M37 461l37 180h188l53 248h-202l34 180h205l74 356h205l-74 -356h229l76 356h203l-74 -356h185l-39 -180h-185l-55 -248h207l-45 -180h-199l-78 -346h-200l73 346h-229l-74 -346h-200l71 346h-186zM463 641h231l56 248h-232z" />
<glyph unicode="$" d="M123 1038q0 157 111 267.5t294 128.5v186h146v-182q211 -10 315 -68v-270q-140 85 -315 104v-379q219 -79 314 -180.5t95 -245.5q0 -166 -106 -267.5t-303 -123.5v-217h-146v211q-203 1 -378 92v277q58 -47 173 -87t205 -46v364q-234 87 -319.5 188.5t-85.5 247.5z M389 1055q0 -103 139 -172v317q-139 -25 -139 -145zM674 242q143 22 143 143q0 98 -143 160v-303z" />
<glyph unicode="%" horiz-adv-x="1776" d="M90 1065q0 179 99.5 284t265.5 105q159 0 248.5 -95t89.5 -267q0 -177 -99 -281t-264 -104q-153 0 -246.5 97t-93.5 261zM299 0l932 1434h246l-934 -1434h-244zM303 1075q0 -192 139 -192q142 0 142 200q0 195 -135 195q-146 0 -146 -203zM983 338q0 179 99.5 284 t265.5 105q160 0 249 -94t89 -266q0 -177 -99 -282t-264 -105q-153 0 -246.5 97t-93.5 261zM1194 348q0 -192 141 -192q142 0 142 200q0 93 -38 144t-100 51q-145 0 -145 -203z" />
<glyph unicode="&#x26;" horiz-adv-x="1740" d="M75 416q0 85 30.5 151.5t79.5 116.5t111 86t126 60q-31 24 -62.5 55.5t-56.5 69t-40.5 81.5t-15.5 93q0 79 32 140t89.5 103t137.5 64t176 22q92 0 168.5 -23t131.5 -64t85 -98.5t30 -126.5q0 -111 -66.5 -192.5t-187.5 -132.5q48 -22 92 -50t86 -64t82 -81.5t79 -104.5 q82 103 117.5 219.5t35.5 242.5q0 38 -4.5 73t-14.5 65h269q11 -32 16 -62t5 -71q0 -97 -20.5 -189t-57.5 -176t-89.5 -159t-115.5 -140q49 -51 101 -78.5t98 -27.5q48 0 98 10.5t87 29.5v-238q-55 -22 -108.5 -32.5t-119.5 -10.5q-53 0 -100.5 14t-90 38t-80.5 56.5 t-72 69.5q-37 -30 -89 -62t-117.5 -57.5t-144.5 -42t-169 -16.5q-117 0 -216.5 28t-171.5 83.5t-112.5 137.5t-40.5 190zM395 429q0 -48 17 -87t48.5 -67t75 -43.5t96.5 -15.5q59 0 111 11.5t98 30.5t85.5 44t72.5 52q-51 80 -101 135.5t-99 95t-97.5 66.5t-97.5 49 q-41 -20 -78.5 -44.5t-66.5 -57t-46.5 -74t-17.5 -95.5zM531 1119q0 -56 35 -103t87 -76q33 12 62.5 28t52 38t36 51t13.5 67q0 29 -11 52t-30 38.5t-43 24t-51 8.5q-33 0 -60.5 -10t-48 -27t-31.5 -40.5t-11 -50.5z" />
<glyph unicode="'" horiz-adv-x="600" d="M170 1452h260l-31 -442h-200z" />
<glyph unicode="(" horiz-adv-x="756" d="M158 549q0 501 323 885h256q-303 -402 -303 -885t305 -875h-258q-323 356 -323 875z" />
<glyph unicode="&#xfd3e;" horiz-adv-x="756" d="M158 549q0 501 323 885h256q-303 -402 -303 -885t305 -875h-258q-323 356 -323 875z" />
<glyph unicode=")" horiz-adv-x="756" d="M18 -326q306 390 306 875q0 481 -306 885h258q324 -385 324 -885q0 -515 -326 -875h-256z" />
<glyph unicode="&#xfd3f;" horiz-adv-x="756" d="M18 -326q306 390 306 875q0 481 -306 885h258q324 -385 324 -885q0 -515 -326 -875h-256z" />
<glyph unicode="*" horiz-adv-x="932" d="M70 1053l71 202l252 -108l-43 287h234l-43 -287l250 108l73 -202l-274 -37l196 -211l-182 -125l-137 254l-137 -254l-183 125l197 211z" />
<glyph unicode="+" horiz-adv-x="1448" d="M238 485v203h387v387h202v-387h385v-203h-385v-385h-202v385h-387z" />
<glyph unicode="," horiz-adv-x="555" d="M39 -254l102 506h291l-147 -506h-246z" />
<glyph unicode="-" horiz-adv-x="828" d="M143 436v221h547v-221h-547z" />
<glyph unicode="." horiz-adv-x="555" d="M92 141q0 72 53.5 118t133.5 46q81 0 132.5 -46.5t51.5 -117.5q0 -73 -52.5 -119.5t-136.5 -46.5q-78 0 -130 48t-52 118z" />
<glyph unicode="/" horiz-adv-x="908" d="M-49 -238l696 1672h285l-699 -1672h-282z" />
<glyph unicode="0" d="M70 694q0 373 138.5 568.5t401.5 195.5q500 0 500 -731q0 -364 -136.5 -558t-391.5 -194q-512 0 -512 719zM391 702q0 -485 201 -485q196 0 196 500t-192 500q-205 0 -205 -515z" />
<glyph unicode="1" d="M162 1077v256l620 125v-1208h295v-250h-907v250h297v893z" />
<glyph unicode="2" d="M109 0v246l411 393q124 119 174.5 199.5t50.5 169.5q0 198 -213 198q-185 0 -354 -147v278q187 121 422 121q220 0 343.5 -110.5t123.5 -298.5q0 -251 -301 -519l-295 -262v-6h582v-262h-944z" />
<glyph unicode="3" d="M147 47v275q144 -105 336 -105q121 0 188.5 52t67.5 145q0 96 -83.5 148t-229.5 52h-129v242h119q280 0 280 186q0 175 -215 175q-144 0 -280 -93v258q151 76 352 76q220 0 342.5 -99t122.5 -257q0 -281 -285 -352v-5q152 -19 240 -110.5t88 -224.5q0 -201 -147 -318 t-406 -117q-222 0 -361 72z" />
<glyph unicode="4" d="M39 305v201l602 928h311v-904h172v-225h-172v-305h-288v305h-625zM301 530h363v451q0 60 4 137h-6q-14 -36 -54 -112z" />
<glyph unicode="5" d="M164 37v270q147 -90 313 -90q125 0 195.5 59.5t70.5 161.5q0 213 -301 213q-98 0 -237 -18v801h794v-258h-524v-287q63 6 119 6q221 0 346 -116t125 -312q0 -217 -149 -354.5t-404 -137.5q-207 0 -348 62z" />
<glyph unicode="6" d="M100 641q0 372 175 594.5t475 222.5q166 0 258 -39v-264q-109 62 -238 62q-159 0 -256.5 -121.5t-101.5 -325.5h6q103 152 301 152q180 0 285.5 -122t105.5 -323q0 -216 -140 -359t-356 -143q-242 0 -378 175t-136 491zM422 471q0 -105 52.5 -179.5t139.5 -74.5 q85 0 136 66.5t51 173.5q0 231 -189 231q-87 0 -138.5 -61t-51.5 -156z" />
<glyph unicode="7" d="M96 1176v258h998v-146l-506 -1288h-334l510 1176h-668z" />
<glyph unicode="8" d="M82 367q0 257 289 378v5q-246 101 -246 327q0 166 132 273.5t341 107.5q213 0 340 -100.5t127 -259.5q0 -235 -272 -346v-4q146 -43 226.5 -141.5t80.5 -221.5q0 -190 -140.5 -300t-392.5 -110q-218 0 -351.5 107.5t-133.5 284.5zM381 383q0 -78 61.5 -129t149.5 -51 q95 0 153 50t58 132q0 164 -221 240q-201 -79 -201 -242zM424 1069q0 -134 172 -203q172 71 172 205q0 73 -46.5 116.5t-123.5 43.5q-75 0 -124.5 -45.5t-49.5 -116.5z" />
<glyph unicode="9" d="M78 952q0 229 141 367.5t365 138.5q230 0 366.5 -174t136.5 -498q0 -384 -164.5 -597.5t-459.5 -213.5q-175 0 -303 56v260q113 -74 272 -74q166 0 256.5 112.5t91.5 319.5l-6 2q-95 -141 -289 -141q-176 0 -291.5 123t-115.5 319zM387 979q0 -109 52.5 -171.5 t142.5 -62.5q82 0 134 59.5t52 149.5q0 113 -54.5 188t-138.5 75q-82 0 -135 -66.5t-53 -171.5z" />
<glyph unicode=":" horiz-adv-x="555" d="M92 141q0 72 53.5 118t133.5 46q81 0 132.5 -46.5t51.5 -117.5q0 -73 -52.5 -119.5t-136.5 -46.5q-78 0 -130 48t-52 118zM92 872q0 72 53.5 118t133.5 46q81 0 132.5 -46.5t51.5 -117.5q0 -73 -52.5 -119t-136.5 -46q-78 0 -130 47.5t-52 117.5z" />
<glyph unicode=";" horiz-adv-x="555" d="M39 -254l102 506h291l-147 -506h-246zM98 872q0 73 52.5 118.5t132.5 45.5q81 0 132.5 -46.5t51.5 -117.5q0 -73 -51 -119t-135 -46q-79 0 -131 48t-52 117z" />
<glyph unicode="&#x3c;" horiz-adv-x="1448" d="M258 489v162l934 447v-238l-666 -285v-6l666 -268v-238z" />
<glyph unicode="=" horiz-adv-x="1448" d="M238 266v203h974v-203h-974zM238 700v205h974v-205h-974z" />
<glyph unicode="&#x3e;" horiz-adv-x="1448" d="M258 76v237l668 267v4l-668 286v238l934 -444v-162z" />
<glyph unicode="?" horiz-adv-x="897" d="M62 1065v301q77 46 168 69t188 23q93 0 173 -20.5t139.5 -64.5t93 -112.5t33.5 -164.5q0 -61 -14 -110.5t-41 -93.5t-67 -84.5t-92 -83.5q-35 -29 -61.5 -54t-44 -49.5t-26.5 -52t-9 -62.5q0 -24 6.5 -49t17.5 -42h-263q-10 26 -15.5 58.5t-5.5 61.5q0 46 9 84t27 71.5 t45 64t63 60.5q38 32 66.5 59.5t48.5 55t30 57t10 65.5q0 31 -11 57.5t-31.5 45.5t-50 30t-65.5 11q-78 0 -162 -32.5t-159 -98.5zM223 143q0 70 53 117t133 47q79 0 131 -47q52 -46 52 -117q0 -72 -51 -119q-52 -47 -132 -47t-133 48q-53 50 -53 118z" />
<glyph unicode="@" horiz-adv-x="1954" d="M135 592q0 364 247 612t636 248q360 0 582.5 -192.5t222.5 -507.5q0 -259 -136 -415.5t-337 -156.5q-99 0 -161 53t-67 138h-6q-70 -191 -254 -191q-138 0 -222.5 100t-84.5 277q0 229 117 372.5t282 143.5q149 0 187 -117h4l10 99h225q-45 -426 -45 -557q0 -140 76 -140 q80 0 132 106t52 277q0 234 -149 383.5t-416 149.5q-286 0 -475.5 -199.5t-189.5 -486.5q0 -278 167.5 -438t462.5 -160q225 0 412 86v-191q-171 -73 -440 -73q-369 0 -600.5 211.5t-231.5 568.5zM786 559q0 -96 38.5 -149.5t99.5 -53.5q94 0 148 101t54 270q0 80 -37.5 126 t-99.5 46q-90 0 -146.5 -102.5t-56.5 -237.5z" />
<glyph unicode="A" horiz-adv-x="1440" d="M10 0l522 1434h383l510 -1434h-352l-102 319h-510l-101 -319h-350zM530 567h367l-154 482q-17 54 -24 129h-8q-5 -63 -25 -125z" />
<glyph unicode="B" horiz-adv-x="1313" d="M164 0v1434h522q240 0 369 -88t129 -248q0 -116 -78.5 -203t-200.5 -121v-4q153 -19 244.5 -113t91.5 -229q0 -197 -141 -312.5t-385 -115.5h-551zM487 238h175q112 0 175.5 52t63.5 142q0 86 -62.5 135t-174.5 49h-177v-378zM487 856h142q100 0 157.5 48.5t57.5 133.5 q0 158 -236 158h-121v-340z" />
<glyph unicode="C" horiz-adv-x="1278" d="M74 686q0 344 212.5 558t551.5 214q210 0 354 -53v-311q-144 86 -328 86q-202 0 -326 -127t-124 -344q0 -208 117 -331.5t315 -123.5q189 0 346 92v-295q-157 -76 -410 -76q-330 0 -519 194t-189 517z" />
<glyph unicode="D" horiz-adv-x="1510" d="M164 0v1434h508q764 0 764 -699q0 -335 -208.5 -535t-555.5 -200h-508zM487 262h160q210 0 329.5 126t119.5 343q0 205 -118.5 322.5t-332.5 117.5h-158v-909z" />
<glyph unicode="E" horiz-adv-x="1090" d="M164 0v1434h827v-263h-504v-319h469v-262h-469v-328h537v-262h-860z" />
<glyph unicode="F" horiz-adv-x="1065" d="M164 0v1434h829v-263h-506v-352h465v-262h-465v-557h-323z" />
<glyph unicode="G" horiz-adv-x="1456" d="M74 694q0 338 218 551t580 213q228 0 402 -63v-303q-166 96 -406 96q-201 0 -327.5 -130.5t-126.5 -348.5q0 -221 113.5 -342t306.5 -121q116 0 184 33v280h-287v258h610v-721q-210 -121 -522 -121q-346 0 -545.5 191.5t-199.5 527.5z" />
<glyph unicode="H" horiz-adv-x="1569" d="M164 0v1434h323v-572h594v572h324v-1434h-324v584h-594v-584h-323z" />
<glyph unicode="I" horiz-adv-x="649" d="M44 0v250h120v934h-120v250h563v-250h-120v-934h120v-250h-563z" />
<glyph unicode="J" horiz-adv-x="912" d="M33 14v303q83 -63 186 -63q221 0 221 328v852h322v-865q0 -288 -133.5 -441t-386.5 -153q-113 0 -209 39z" />
<glyph unicode="K" horiz-adv-x="1329" d="M164 0v1434h323v-678h5q12 28 40 80l396 598h385l-500 -684l543 -750h-408l-418 623q-12 18 -38 79h-5v-702h-323z" />
<glyph unicode="L" horiz-adv-x="1047" d="M164 0v1434h323v-1172h531v-262h-854z" />
<glyph unicode="M" horiz-adv-x="1960" d="M164 0v1434h473l293 -850q35 -102 51 -205h6q27 119 57 207l293 848h461v-1434h-319v858q0 139 12 307h-8q-25 -132 -45 -190l-336 -975h-264l-342 965q-14 39 -45 200h-9q13 -212 13 -372v-793h-291z" />
<glyph unicode="N" horiz-adv-x="1618" d="M164 0v1434h348l569 -873q39 -59 72 -117h4q-8 50 -8 197v793h305v-1434h-326l-591 901q-52 79 -72 119h-4q8 -76 8 -232v-788h-305z" />
<glyph unicode="O" horiz-adv-x="1553" d="M74 698q0 340 197 550t522 210q307 0 496.5 -201t189.5 -530q0 -338 -196.5 -545t-512.5 -207q-308 0 -502 200.5t-194 522.5zM414 715q0 -213 100 -337t262 -124q167 0 265 120.5t98 334.5q0 223 -95 347t-260 124q-170 0 -270 -127.5t-100 -337.5z" />
<glyph unicode="P" horiz-adv-x="1258" d="M164 0v1434h506q542 0 542 -457q0 -216 -155.5 -349.5t-415.5 -133.5h-154v-494h-323zM487 739h127q258 0 258 226q0 221 -258 221h-127v-447z" />
<glyph unicode="Q" horiz-adv-x="1553" d="M74 698q0 341 196 550q197 210 525 210q305 0 494 -202q190 -200 190 -529q0 -257 -116 -442q-116 -183 -323 -258q52 -56 99 -92t94.5 -57t97.5 -29t109 -8q16 0 35 1.5t38.5 5t37.5 8t33 10.5v-272q-32 -9 -88.5 -18t-137.5 -9q-98 0 -180.5 32t-158 87.5t-147 130.5 t-148.5 161q-147 4 -267 61t-205 153.5t-131.5 226.5t-46.5 279zM414 715q0 -212 99 -337q100 -124 263 -124q168 0 265 120q98 122 98 335q0 221 -94 345q-94 126 -261 126q-169 0 -270 -128q-100 -127 -100 -337z" />
<glyph unicode="R" horiz-adv-x="1337" d="M164 0v1434h512q522 0 522 -390q0 -75 -23 -138.5t-65 -114.5t-101.5 -88t-132.5 -58v-4q32 -10 62 -32.5t58 -52.5t53.5 -64.5t46.5 -67.5l271 -424h-371l-223 369q-25 42 -48 75t-46.5 56.5t-49 36t-55.5 12.5h-87v-549h-323zM487 793h140q104 0 167 60q64 61 64 151 q0 188 -225 188h-146v-399z" />
<glyph unicode="S" horiz-adv-x="1148" d="M92 1032q0 112 45 192.5t122.5 132.5t179.5 76.5t216 24.5q112 0 198.5 -13.5t159.5 -41.5v-299q-36 25 -78.5 44t-87.5 31.5t-89.5 18.5t-84.5 6q-55 0 -100 -10.5t-76 -29.5t-48 -45.5t-17 -59.5q0 -36 19 -64.5t54 -54t85 -50t113 -50.5q86 -36 154.5 -76.5 t117.5 -91.5t75 -116.5t26 -152.5q0 -120 -45.5 -201.5t-123.5 -132t-181.5 -72.5t-218.5 -22q-118 0 -224.5 20t-184.5 60v320q87 -73 189 -109.5t206 -36.5q61 0 106.5 11t76 30.5t45.5 46t15 57.5q0 42 -24 75t-65.5 61t-98.5 54t-123 53q-168 70 -250.5 171t-82.5 244z " />
<glyph unicode="T" horiz-adv-x="1200" d="M31 1171v263h1140v-263h-409v-1171h-324v1171h-407z" />
<glyph unicode="U" horiz-adv-x="1481" d="M147 606v828h324v-832q0 -348 272 -348q267 0 267 336v844h323v-813q0 -646 -602 -646q-584 0 -584 631z" />
<glyph unicode="V" horiz-adv-x="1366" d="M10 1434h348l299 -998q24 -81 29 -143h6q7 67 31 147l297 994h338l-494 -1434h-366z" />
<glyph unicode="W" horiz-adv-x="2058" d="M18 1434h353l202 -955q13 -61 19 -164h6q4 77 29 168l260 951h346l235 -963q13 -53 23 -154h4q4 79 21 160l198 957h326l-379 -1434h-358l-238 920q-19 72 -23 161h-4q-9 -98 -26 -161l-244 -920h-373z" />
<glyph unicode="X" horiz-adv-x="1342" d="M6 0l457 717l-418 717h393l205 -430q24 -51 43 -121h4q12 42 45 125l228 426h360l-430 -711l442 -723h-383l-247 467q-14 26 -29 96h-4q-7 -33 -33 -100l-248 -463h-385z" />
<glyph unicode="Y" horiz-adv-x="1243" d="M0 1434h369l231 -535q6 -15 33 -117h4q13 72 31 113l235 539h342l-467 -924v-510h-323v504z" />
<glyph unicode="Z" horiz-adv-x="1243" d="M41 0v186l735 985h-682v263h1100v-181l-719 -991h721v-262h-1155z" />
<glyph unicode="[" horiz-adv-x="756" d="M217 -326v1760h469v-201h-209v-1358h209v-201h-469z" />
<glyph unicode="\" horiz-adv-x="893" d="M0 1434h281l680 -1672h-279z" />
<glyph unicode="]" horiz-adv-x="756" d="M70 -125h211v1358h-211v201h471v-1760h-471v201z" />
<glyph unicode="^" horiz-adv-x="1448" d="M203 610l430 848h162l454 -848h-243l-287 586h-4l-271 -586h-241z" />
<glyph unicode="_" horiz-adv-x="850" d="M0 -178h850v-119h-850v119z" />
<glyph unicode="`" horiz-adv-x="643" d="M55 1509h281l260 -323h-227z" />
<glyph unicode="a" horiz-adv-x="1102" d="M57 285q0 298 353 344l278 37q0 168 -182 168q-183 0 -348 -109v238q66 34 180.5 60t208.5 26q438 0 438 -437v-612h-299v147h-4q-103 -172 -305 -172q-149 0 -234.5 84.5t-85.5 225.5zM348 322q0 -54 37.5 -88.5t101.5 -34.5q89 0 145 61.5t56 155.5v69l-186 -24 q-154 -20 -154 -139z" />
<glyph unicode="b" horiz-adv-x="1270" d="M133 0v1516h316v-646h4q117 179 333 179q198 0 305 -136t107 -372q0 -256 -125 -411t-334 -155q-189 0 -286 144h-4v-119h-316zM444 446q0 -99 57 -164t146 -65q108 0 167.5 83.5t59.5 236.5q0 127 -54.5 198.5t-155.5 71.5q-95 0 -157.5 -71t-62.5 -185v-105z" />
<glyph unicode="c" horiz-adv-x="983" d="M72 487q0 261 156.5 411.5t418.5 150.5q181 0 262 -48v-268q-99 74 -221 74q-136 0 -215.5 -79.5t-79.5 -219.5q0 -136 76 -213.5t209 -77.5q118 0 231 74v-254q-107 -62 -309 -62q-236 0 -382 143t-146 369z" />
<glyph unicode="d" horiz-adv-x="1268" d="M72 489q0 254 129 407t338 153q198 0 276 -142h4v609h316v-1516h-316v141h-4q-108 -166 -317 -166q-192 0 -309 135.5t-117 378.5zM393 498q0 -135 57 -208t158 -73q96 0 156.5 77t60.5 204v77q0 100 -58 166t-151 66q-105 0 -164 -82.5t-59 -226.5z" />
<glyph unicode="e" horiz-adv-x="1108" d="M72 496q0 255 148 404t364 149q224 0 346.5 -133t122.5 -361v-133h-668q16 -223 281 -223q169 0 297 80v-228q-142 -76 -369 -76q-248 0 -385 137.5t-137 383.5zM383 616h377q0 220 -178 220q-76 0 -131.5 -63t-67.5 -157z" />
<glyph unicode="f" horiz-adv-x="785" d="M45 791v233h172v127q0 175 114 282t310 107q96 0 160 -20v-246q-61 24 -117 24q-152 0 -152 -165v-109h234v-233h-234v-791h-315v791h-172z" />
<glyph unicode="g" horiz-adv-x="1268" d="M72 483q0 260 128 413t337 153q187 0 280 -144h4v119h316v-907q0 -285 -165 -441.5t-478 -156.5q-207 0 -328 59v266q158 -92 319 -92q160 0 248 84.5t88 229.5v81h-4q-108 -172 -319 -172q-196 0 -311 138t-115 370zM393 494q0 -128 57 -202.5t156 -74.5 q98 0 158.5 75.5t60.5 199.5v81q0 97 -57.5 165.5t-149.5 68.5q-105 0 -165 -82t-60 -231z" />
<glyph unicode="h" horiz-adv-x="1233" d="M133 0v1516h316v-644h4q116 177 315 177q348 0 348 -420v-629h-315v582q0 225 -164 225q-84 0 -136 -63t-52 -160v-584h-316z" />
<glyph unicode="i" horiz-adv-x="582" d="M111 1350q0 71 51 116t131 45q81 0 131.5 -45t50.5 -116q0 -72 -50.5 -118t-131.5 -46q-80 0 -131 47.5t-51 116.5zM133 0v1024h316v-1024h-316z" />
<glyph unicode="j" horiz-adv-x="582" d="M-133 -203q66 -37 117 -37q149 0 149 234v1030h316v-1006q0 -227 -111 -363t-320 -136q-69 0 -151 30v248zM111 1350q0 71 51 116t131 45q81 0 131.5 -45t50.5 -116q0 -72 -50.5 -118t-131.5 -46q-80 0 -131 47.5t-51 116.5z" />
<glyph unicode="k" horiz-adv-x="1145" d="M133 0v1516h316v-965h4l305 473h375l-367 -481l393 -543h-379l-327 508h-4v-508h-316z" />
<glyph unicode="l" horiz-adv-x="582" d="M133 0v1516h316v-1516h-316z" />
<glyph unicode="m" horiz-adv-x="1876" d="M133 0v1024h316v-160h4q49 82 137.5 133.5t193.5 51.5q217 0 297 -191q117 191 344 191q334 0 334 -412v-637h-315v584q0 223 -164 223q-78 0 -127 -67t-49 -167v-573h-316v590q0 217 -161 217q-81 0 -129.5 -64t-48.5 -174v-569h-316z" />
<glyph unicode="n" horiz-adv-x="1239" d="M133 0v1024h316v-162h4q113 187 329 187q340 0 340 -422v-627h-315v569q0 238 -170 238q-82 0 -135 -63t-53 -160v-584h-316z" />
<glyph unicode="o" horiz-adv-x="1252" d="M72 508q0 254 152 397.5t411 143.5q255 0 400 -143.5t145 -379.5q0 -255 -149.5 -403t-409.5 -148q-256 0 -402.5 143.5t-146.5 389.5zM393 512q0 -295 238 -295q227 0 227 303q0 287 -229 287q-112 0 -174 -77t-62 -218z" />
<glyph unicode="p" horiz-adv-x="1270" d="M133 -471v1495h316v-154h4q117 179 329 179q199 0 307.5 -136.5t108.5 -371.5q0 -256 -126.5 -411t-336.5 -155q-185 0 -282 144h-4v-590h-316zM444 457q0 -106 56 -173t147 -67q108 0 167.5 83.5t59.5 236.5q0 270 -210 270q-97 0 -158.5 -73.5t-61.5 -194.5v-82z" />
<glyph unicode="q" horiz-adv-x="1268" d="M72 487q0 256 129 409t336 153q188 0 278 -144h4v119h316v-1495h-316v612h-4q-107 -166 -315 -166q-193 0 -310.5 134.5t-117.5 377.5zM393 496q0 -131 58.5 -205t152.5 -74q100 0 160.5 75t60.5 197v82q0 100 -58 168t-149 68q-105 0 -165 -82.5t-60 -228.5z" />
<glyph unicode="r" horiz-adv-x="815" d="M133 0v1024h316v-190h4q75 208 270 208q50 0 78 -12v-291q-57 31 -133 31q-103 0 -161 -75.5t-58 -205.5v-489h-316z" />
<glyph unicode="s" horiz-adv-x="901" d="M66 27v256q78 -47 155.5 -70t146.5 -23q84 0 132.5 23t48.5 70q0 30 -22 50t-56.5 35t-75.5 27t-79 27q-61 23 -107.5 49.5t-78 61.5t-48 81t-16.5 109q0 86 37.5 148t100 101.5t143 58t167.5 18.5q68 0 138 -10.5t138 -30.5v-244q-60 35 -128.5 52.5t-134.5 17.5 q-31 0 -58.5 -5.5t-48.5 -16t-33 -27t-12 -37.5q0 -28 18 -48t47 -34.5t64.5 -26t70.5 -23.5q63 -22 114 -48t87.5 -61t56 -82t19.5 -112q0 -91 -39.5 -155.5t-105 -105t-151 -59t-177.5 -18.5q-169 0 -313 52z" />
<glyph unicode="t" horiz-adv-x="797" d="M41 791v233h166v221l315 90v-311h230v-233h-230v-414q0 -160 127 -160q50 0 103 29v-234q-70 -37 -211 -37q-334 0 -334 347v469h-166z" />
<glyph unicode="u" horiz-adv-x="1239" d="M117 406v618h315v-590q0 -217 172 -217q85 0 136 59.5t51 161.5v586h315v-1024h-315v156h-5q-117 -181 -313 -181q-356 0 -356 431z" />
<glyph unicode="v" horiz-adv-x="1110" d="M4 1024h338l178 -631q30 -107 35 -182h4q7 71 37 176l182 637h330l-381 -1024h-360z" />
<glyph unicode="w" horiz-adv-x="1633" d="M16 1024h322l141 -668q10 -47 15 -114h6q5 70 18 118l176 664h301l158 -668q6 -25 14 -116h7q5 58 16 116l133 668h293l-295 -1024h-332l-151 600q-15 60 -17 131h-6q-7 -78 -20 -127l-162 -604h-328z" />
<glyph unicode="x" horiz-adv-x="1131" d="M8 0l346 510l-325 514h366l146 -287q29 -57 41 -96h4q16 47 43 98l149 285h344l-338 -496l336 -528h-364l-148 276q-18 33 -43 93h-4q-15 -42 -41 -90l-149 -279h-363z" />
<glyph unicode="y" horiz-adv-x="1102" d="M-4 1024h350l191 -623q18 -58 28 -137h4q9 58 33 135l193 625h313l-416 -1106q-150 -399 -452 -399q-115 0 -189 26v252q63 -37 137 -37q122 0 170 115l54 127z" />
<glyph unicode="z" horiz-adv-x="981" d="M25 0v131l514 660h-463v233h864v-156l-487 -635h491v-233h-919z" />
<glyph unicode="{" horiz-adv-x="756" d="M106 463v184q152 0 152 191v223q0 206 98 289.5t318 83.5v-187q-160 0 -160 -174v-213q0 -240 -154 -303v-4q154 -62 154 -307v-205q0 -98 37.5 -139t122.5 -41v-187q-218 0 -317 80t-99 285v240q0 184 -152 184z" />
<glyph unicode="|" horiz-adv-x="668" d="M209 -481v2048h252v-2048h-252z" />
<glyph unicode="}" horiz-adv-x="756" d="M84 -139q84 0 122 40.5t38 137.5v213q0 239 153 299v4q-153 63 -153 313v205q0 174 -160 174v187q218 0 316 -83.5t98 -285.5v-229q0 -189 153 -189v-184q-153 0 -153 -187v-231q0 -211 -97.5 -291t-316.5 -80v187z" />
<glyph unicode="~" horiz-adv-x="1448" d="M195 399q6 169 89.5 267t227.5 98q112 0 238 -76q130 -78 180 -78q52 0 85.5 44.5t35.5 117.5h204q-6 -168 -89.5 -266t-223.5 -98q-106 0 -258 88q-109 63 -156 63q-123 0 -129 -160h-204z" />
<glyph unicode="&#xa1;" horiz-adv-x="670" d="M152 883q0 72 51.5 119t132.5 47q79 0 130.5 -48t51.5 -118q0 -72 -51.5 -117t-130.5 -45q-81 0 -132.5 46t-51.5 116zM172 -408l37 990h256l39 -990h-332z" />
<glyph unicode="&#xa2;" d="M170 657q0 234 134 381.5t358 171.5v211h161v-207q110 -6 181 -45v-272q-76 58 -181 70v-574q108 17 181 68v-254q-73 -42 -181 -55v-189h-161v184q-216 12 -354 151.5t-138 358.5zM467 678q0 -222 195 -279v559q-195 -59 -195 -280z" />
<glyph unicode="&#xa3;" d="M143 0v227q193 52 193 269v116h-172v217h172v187q0 198 122 320t330 122q127 0 234 -49v-258q-98 66 -209 66q-184 0 -184 -230v-158h268v-217h-268v-86q0 -184 -152 -284h637v-242h-971z" />
<glyph unicode="&#xa4;" horiz-adv-x="1139" d="M51 358l142 138q-66 110 -66 229q0 121 66 229l-142 140l142 145l143 -141q106 65 233 65q129 0 234 -65l143 141l141 -145l-141 -140q68 -111 68 -229q0 -115 -68 -229l141 -138l-141 -145l-143 141q-105 -65 -234 -65q-127 0 -233 65l-143 -141zM330 727 q0 -99 69.5 -168.5t169.5 -69.5t171 69.5t71 168.5q0 98 -73 168t-169 70q-100 0 -169.5 -69.5t-69.5 -168.5z" />
<glyph unicode="&#xa5;" d="M41 1434h321l246 -570h4q4 11 37 90l203 480h305l-354 -641h252v-189h-305v-153h305v-189h-305v-262h-308v262h-315v189h315v153h-315v189h256z" />
<glyph unicode="&#xa6;" horiz-adv-x="668" d="M209 414h252v-895h-252v895zM209 684v883h252v-883h-252z" />
<glyph unicode="&#xa7;" horiz-adv-x="994" d="M131 731q0 143 125 234q-88 88 -88 215q0 140 102.5 225.5t274.5 85.5q139 0 260 -55v-250q-139 96 -260 96q-123 0 -123 -94q0 -45 40.5 -77.5t184.5 -96.5q254 -112 254 -309q0 -167 -149 -271q82 -75 82 -174q0 -149 -108.5 -237.5t-285.5 -88.5q-163 0 -290 68v248 q180 -105 311 -105q127 0 127 99q0 61 -96 108q-141 65 -210 112.5t-110 116.5t-41 150zM367 754q0 -57 51 -102t178 -99q66 44 66 123q0 62 -53.5 100.5t-176.5 87.5q-65 -38 -65 -110z" />
<glyph unicode="&#xa8;" horiz-adv-x="946" d="M86 1323q0 60 44 98.5t110 38.5q68 0 110.5 -38.5t42.5 -98.5q0 -61 -42.5 -99t-110.5 -38t-111 39.5t-43 97.5zM545 1323q0 61 43 99t110 38t110.5 -38.5t43.5 -98.5t-43 -98.5t-111 -38.5q-67 0 -110 39t-43 98z" />
<glyph unicode="&#xa9;" horiz-adv-x="1790" d="M131 713q0 317 220.5 531t549.5 214q328 0 544 -208.5t216 -532.5q0 -317 -221.5 -529.5t-546.5 -212.5q-333 0 -547.5 207t-214.5 531zM264 717q0 -272 181.5 -450.5t451.5 -178.5q265 0 448 179.5t183 447.5q0 272 -180 451.5t-451 179.5q-275 0 -454 -180t-179 -449z M446 696q0 231 143.5 370.5t373.5 139.5q125 0 239 -55v-236q-98 76 -244 76q-115 0 -192.5 -76.5t-77.5 -205.5q0 -122 78.5 -197.5t198.5 -75.5q141 0 239 76v-217q-125 -68 -274 -68q-209 0 -346.5 134t-137.5 335z" />
<glyph unicode="&#xaa;" horiz-adv-x="840" d="M72 915q0 211 262 244l192 25q0 114 -139 114q-118 0 -246 -77v176q124 57 287 57q311 0 311 -299v-438h-213v86h-4q-87 -107 -219 -107q-101 0 -166 61t-65 158zM287 942q0 -88 104 -88q54 0 94.5 38.5t40.5 92.5v70l-123 -17q-116 -16 -116 -96z" />
<glyph unicode="&#xab;" horiz-adv-x="1190" d="M53 537l330 344h266l-334 -344l336 -336h-268zM541 537l327 344h269l-334 -344l334 -336h-269z" />
<glyph unicode="&#xac;" horiz-adv-x="1448" d="M238 655v203h974v-592h-202v389h-772z" />
<glyph unicode="&#xad;" horiz-adv-x="828" d="M143 436v221h547v-221h-547z" />
<glyph unicode="&#xae;" horiz-adv-x="1790" d="M131 713q0 317 220.5 531t549.5 214q328 0 544 -208.5t216 -532.5q0 -317 -221.5 -529.5t-546.5 -212.5q-333 0 -547.5 207t-214.5 531zM264 717q0 -272 181.5 -450.5t451.5 -178.5q265 0 448 179.5t183 447.5q0 272 -180 451.5t-451 179.5q-275 0 -454 -180t-179 -449z M563 264v922h320q370 0 370 -262q0 -189 -217 -244v-4q90 -20 142 -146l110 -266h-254l-76 232q-40 122 -110 122h-74v-354h-211zM774 780h111q139 0 139 119q0 111 -160 111h-90v-230z" />
<glyph unicode="&#xaf;" horiz-adv-x="850" d="M0 1396v120h850v-120h-850z" />
<glyph unicode="&#xb0;" horiz-adv-x="778" d="M115 1178q0 118 82.5 199t201.5 81q118 0 201.5 -81t83.5 -199t-83.5 -200.5t-201.5 -82.5q-119 0 -201.5 82.5t-82.5 200.5zM270 1178q0 -54 37.5 -92.5t91.5 -38.5q53 0 91 38.5t38 92.5t-37.5 91.5t-91.5 37.5t-91.5 -37.5t-37.5 -91.5z" />
<glyph unicode="&#xb1;" horiz-adv-x="1448" d="M238 0v203h972v-203h-972zM242 694v203h383v391h202v-391h385v-203h-385v-387h-202v387h-383z" />
<glyph unicode="&#xb2;" horiz-adv-x="828" d="M117 884v157l248 234q77 73 95.5 110t18.5 82q0 42 -28.5 69.5t-75.5 27.5q-98 0 -211 -103v215q118 78 250 78q136 0 215.5 -68.5t79.5 -189.5q0 -70 -37.5 -141t-179.5 -197l-105 -92v-4h334v-178h-604z" />
<glyph unicode="&#xb3;" horiz-adv-x="828" d="M131 916v181q107 -68 221 -68q150 0 150 102q0 103 -172 103h-117v166h113q149 0 149 96q0 90 -119 90q-107 0 -198 -65v176q99 57 239 57q134 0 211.5 -60.5t77.5 -160.5q0 -147 -143 -195v-4q172 -41 172 -198q0 -123 -98 -198t-257 -75q-133 0 -229 53z" />
<glyph unicode="&#xb4;" horiz-adv-x="621" d="M55 1186l260 323h281l-313 -323h-228z" />
<glyph unicode="&#xb5;" horiz-adv-x="1255" d="M133 -395v1419h316v-589q0 -207 170 -207q184 0 184 254v542h319v-710q0 -236 39 -314h-324q-25 70 -25 154h-4q-57 -177 -216 -177q-97 0 -140 64h-3v-436h-316z" />
<glyph unicode="&#xb6;" horiz-adv-x="1043" d="M92 1139q0 129 85.5 212t211.5 83h557v-162h-117v-1272h-174v1272h-118v-1272h-177v836q-115 7 -191.5 92t-76.5 211z" />
<glyph unicode="&#xb7;" horiz-adv-x="555" d="M92 653q0 72 53.5 118t133.5 46q81 0 132.5 -46.5t51.5 -117.5q0 -73 -52.5 -119.5t-136.5 -46.5q-78 0 -130 48t-52 118z" />
<glyph unicode="&#xb8;" horiz-adv-x="441" d="M51 -313q35 -6 72 -6q123 0 123 73q0 66 -111 66q-13 0 -37 -2v182h172v-82q187 -8 187 -166q0 -207 -318 -207q-46 0 -88 4v138z" />
<glyph unicode="&#xb9;" horiz-adv-x="807" d="M143 1492v180l406 82v-698h172v-172h-563v172h176v477z" />
<glyph unicode="&#xba;" horiz-adv-x="934" d="M70 1073q0 179 108.5 280t292.5 101q181 0 284 -101.5t103 -265.5q0 -184 -106.5 -287.5t-292.5 -103.5q-185 0 -287 99.5t-102 277.5zM301 1077q0 -207 164 -207q160 0 160 209q0 201 -160 201q-164 0 -164 -203z" />
<glyph unicode="&#xbb;" horiz-adv-x="1190" d="M53 201l336 336l-334 344h267l329 -344l-329 -336h-269zM541 201l333 336l-331 344h266l328 -344l-328 -336h-268z" />
<glyph unicode="&#xbc;" horiz-adv-x="1950" d="M98 1192v180l406 82v-698h172v-172h-563v172h176v477zM370 0l891 1434h244l-891 -1434h-244zM1127 176v141l350 533h258v-519h110v-155h-110v-176h-213v176h-395zM1311 331h211v263q0 47 4 84h-8q-14 -36 -39 -76z" />
<glyph unicode="&#xbd;" horiz-adv-x="1977" d="M98 1192v180l406 82v-698h172v-172h-563v172h176v477zM371 0l891 1434h244l-891 -1434h-244zM1239 0v157l248 234q77 73 95.5 110t18.5 82q0 42 -28.5 69.5t-75.5 27.5q-98 0 -211 -103v215q118 78 250 78q136 0 215.5 -68.5t79.5 -189.5q0 -70 -37.5 -141t-179.5 -197 l-105 -92v-4h334v-178h-604z" />
<glyph unicode="&#xbe;" horiz-adv-x="2005" d="M131 616v181q107 -68 221 -68q150 0 150 102q0 103 -172 103h-117v166h113q149 0 149 96q0 90 -119 90q-107 0 -198 -65v176q99 57 239 57q134 0 211.5 -60.5t77.5 -160.5q0 -147 -143 -195v-4q172 -41 172 -198q0 -123 -98 -198t-257 -75q-133 0 -229 53zM430 0 l891 1434h244l-891 -1434h-244zM1174 176v141l350 533h258v-519h110v-155h-110v-176h-213v176h-395zM1358 331h211v263q0 47 4 84h-8q-14 -36 -39 -76z" />
<glyph unicode="&#xbf;" horiz-adv-x="897" d="M53 -70q0 61 14 110.5t41 93.5t67 84.5t92 83.5q35 29 61.5 54t44 49.5t26.5 52t9 62.5q0 24 -6.5 49t-17.5 42h263q10 -26 15.5 -58.5t5.5 -61.5q0 -46 -9 -84t-27 -71.5t-45 -64t-63 -60.5q-37 -32 -66 -59.5t-49 -55t-30 -57t-10 -65.5q0 -31 11 -57.5t31.5 -45.5 t50 -30t65.5 -11q78 0 162 32.5t159 98.5v-301q-77 -46 -168 -69t-188 -23q-93 0 -173 20.5t-139.5 64.5t-93 112.5t-33.5 164.5zM318 883q0 73 51 119q52 47 132 47q81 0 133 -48q53 -50 53 -118q0 -70 -53 -117t-133 -47q-79 0 -131 47q-52 46 -52 117z" />
<glyph unicode="&#xc0;" horiz-adv-x="1440" d="M10 0l522 1434h383l510 -1434h-352l-102 319h-510l-101 -319h-350zM530 567h367l-154 482q-17 54 -24 129h-8q-5 -63 -25 -125zM375 1890h281l260 -323h-227z" />
<glyph unicode="&#xc1;" horiz-adv-x="1440" d="M10 0l522 1434h383l510 -1434h-352l-102 319h-510l-101 -319h-350zM530 567h367l-154 482q-17 54 -24 129h-8q-5 -63 -25 -125zM495 1567l260 323h281l-313 -323h-228z" />
<glyph unicode="&#xc2;" horiz-adv-x="1440" d="M10 0l522 1434h383l510 -1434h-352l-102 319h-510l-101 -319h-350zM530 567h367l-154 482q-17 54 -24 129h-8q-5 -63 -25 -125zM359 1567l235 325h248l236 -325h-207l-158 188l-147 -188h-207z" />
<glyph unicode="&#xc3;" horiz-adv-x="1440" d="M10 0l522 1434h383l510 -1434h-352l-102 319h-510l-101 -319h-350zM530 567h367l-154 482q-17 54 -24 129h-8q-5 -63 -25 -125zM358 1567q0 139 55 216t154 77q81 0 168 -49q79 -44 120 -44q78 0 78 111h144q0 -140 -55.5 -216.5t-151.5 -76.5q-86 0 -168 43 q-89 47 -123 47q-80 0 -80 -108h-141z" />
<glyph unicode="&#xc4;" horiz-adv-x="1440" d="M10 0l522 1434h383l510 -1434h-352l-102 319h-510l-101 -319h-350zM530 567h367l-154 482q-17 54 -24 129h-8q-5 -63 -25 -125zM333 1704q0 60 44 98.5t110 38.5q68 0 110.5 -38.5t42.5 -98.5q0 -61 -42.5 -99t-110.5 -38t-111 39.5t-43 97.5zM792 1704q0 61 43 99 t110 38t110.5 -38.5t43.5 -98.5t-43 -98.5t-111 -38.5q-67 0 -110 39t-43 98z" />
<glyph unicode="&#xc5;" horiz-adv-x="1440" d="M10 0l512 1407q-53 54 -53 137q0 106 73.5 169t180.5 63q114 0 184 -63.5t70 -164.5q0 -80 -53 -137l501 -1411h-352l-102 319h-510l-101 -319h-350zM535 584h358l-152 465q-13 40 -22 120h-8q-7 -68 -23 -116zM616 1546q0 -98 103 -98q48 0 77 28.5t29 69.5 q0 43 -29.5 71t-76.5 28t-75 -28.5t-28 -70.5z" />
<glyph unicode="&#xc6;" horiz-adv-x="1915" d="M-2 0l725 1434h1094v-263h-504v-319h469v-262h-469v-328h536v-262h-858v319h-471l-147 -319h-375zM631 567h360v604h-78z" />
<glyph unicode="&#xc7;" horiz-adv-x="1278" d="M74 686q0 344 212.5 558t551.5 214q210 0 354 -53v-311q-144 86 -328 86q-202 0 -326 -127t-124 -344q0 -208 117 -331.5t315 -123.5q189 0 346 92v-295q-157 -76 -410 -76q-330 0 -519 194t-189 517zM610 -313q35 -6 72 -6q123 0 123 73q0 66 -111 66q-13 0 -37 -2v182 h172v-82q187 -8 187 -166q0 -207 -318 -207q-46 0 -88 4v138z" />
<glyph unicode="&#xc8;" horiz-adv-x="1090" d="M164 0v1434h827v-263h-504v-319h469v-262h-469v-328h537v-262h-860zM225 1890h281l260 -323h-227z" />
<glyph unicode="&#xc9;" horiz-adv-x="1090" d="M164 0v1434h827v-263h-504v-319h469v-262h-469v-328h537v-262h-860zM393 1567l260 323h281l-313 -323h-228z" />
<glyph unicode="&#xca;" horiz-adv-x="1090" d="M164 0v1434h827v-263h-504v-319h469v-262h-469v-328h537v-262h-860zM213 1567l235 325h248l236 -325h-207l-158 188l-147 -188h-207z" />
<glyph unicode="&#xcb;" horiz-adv-x="1090" d="M164 0v1434h827v-263h-504v-319h469v-262h-469v-328h537v-262h-860zM200 1704q0 60 44 98.5t110 38.5q68 0 110.5 -38.5t42.5 -98.5q0 -61 -42.5 -99t-110.5 -38t-111 39.5t-43 97.5zM659 1704q0 61 43 99t110 38t110.5 -38.5t43.5 -98.5t-43 -98.5t-111 -38.5 q-67 0 -110 39t-43 98z" />
<glyph unicode="&#xcc;" horiz-adv-x="649" d="M44 0v250h120v934h-120v250h563v-250h-120v-934h120v-250h-563zM-9 1890h281l260 -323h-227z" />
<glyph unicode="&#xcd;" horiz-adv-x="649" d="M44 0v250h120v934h-120v250h563v-250h-120v-934h120v-250h-563zM110 1567l260 323h281l-313 -323h-228z" />
<glyph unicode="&#xce;" horiz-adv-x="649" d="M44 0v250h120v934h-120v250h563v-250h-120v-934h120v-250h-563zM-28 1567l235 325h248l236 -325h-207l-158 188l-147 -188h-207z" />
<glyph unicode="&#xcf;" horiz-adv-x="649" d="M44 0v250h120v934h-120v250h563v-250h-120v-934h120v-250h-563zM-53 1704q0 60 44 98.5t110 38.5q68 0 110.5 -38.5t42.5 -98.5q0 -61 -42.5 -99t-110.5 -38t-111 39.5t-43 97.5zM406 1704q0 61 43 99t110 38t110.5 -38.5t43.5 -98.5t-43 -98.5t-111 -38.5q-67 0 -110 39 t-43 98z" />
<glyph unicode="&#xd0;" horiz-adv-x="1510" d="M0 586v266h164v582h508q764 0 764 -699q0 -335 -208.5 -535t-555.5 -200h-508v586h-164zM487 262h160q210 0 329.5 126t119.5 343q0 205 -118.5 322.5t-332.5 117.5h-158v-319h271v-266h-271v-324z" />
<glyph unicode="&#xd1;" horiz-adv-x="1618" d="M164 0v1434h348l569 -873q39 -59 72 -117h4q-8 50 -8 197v793h305v-1434h-326l-591 901q-52 79 -72 119h-4q8 -76 8 -232v-788h-305zM487 1567q0 139 55 216t154 77q81 0 168 -49q79 -44 120 -44q78 0 78 111h144q0 -140 -55.5 -216.5t-151.5 -76.5q-86 0 -168 43 q-89 47 -123 47q-80 0 -80 -108h-141z" />
<glyph unicode="&#xd2;" horiz-adv-x="1552" d="M74 698q0 340 197 550t522 210q307 0 496.5 -201t189.5 -530q0 -338 -196.5 -545t-512.5 -207q-308 0 -502 200.5t-194 522.5zM414 715q0 -213 100 -337t262 -124q167 0 265 120.5t98 334.5q0 223 -95 347t-260 124q-170 0 -270 -127.5t-100 -337.5zM430 1890h281 l260 -323h-227z" />
<glyph unicode="&#xd3;" horiz-adv-x="1552" d="M74 698q0 340 197 550t522 210q307 0 496.5 -201t189.5 -530q0 -338 -196.5 -545t-512.5 -207q-308 0 -502 200.5t-194 522.5zM414 715q0 -213 100 -337t262 -124q167 0 265 120.5t98 334.5q0 223 -95 347t-260 124q-170 0 -270 -127.5t-100 -337.5zM569 1567l260 323 h281l-313 -323h-228z" />
<glyph unicode="&#xd4;" horiz-adv-x="1552" d="M74 698q0 340 197 550t522 210q307 0 496.5 -201t189.5 -530q0 -338 -196.5 -545t-512.5 -207q-308 0 -502 200.5t-194 522.5zM414 715q0 -213 100 -337t262 -124q167 0 265 120.5t98 334.5q0 223 -95 347t-260 124q-170 0 -270 -127.5t-100 -337.5zM430 1567l235 325 h248l236 -325h-207l-158 188l-147 -188h-207z" />
<glyph unicode="&#xd5;" horiz-adv-x="1552" d="M74 698q0 340 197 550t522 210q307 0 496.5 -201t189.5 -530q0 -338 -196.5 -545t-512.5 -207q-308 0 -502 200.5t-194 522.5zM414 715q0 -213 100 -337t262 -124q167 0 265 120.5t98 334.5q0 223 -95 347t-260 124q-170 0 -270 -127.5t-100 -337.5zM428 1567 q0 139 55 216t154 77q81 0 168 -49q79 -44 120 -44q78 0 78 111h144q0 -140 -55.5 -216.5t-151.5 -76.5q-86 0 -168 43q-89 47 -123 47q-80 0 -80 -108h-141z" />
<glyph unicode="&#xd6;" horiz-adv-x="1552" d="M74 698q0 340 197 550t522 210q307 0 496.5 -201t189.5 -530q0 -338 -196.5 -545t-512.5 -207q-308 0 -502 200.5t-194 522.5zM414 715q0 -213 100 -337t262 -124q167 0 265 120.5t98 334.5q0 223 -95 347t-260 124q-170 0 -270 -127.5t-100 -337.5zM392 1704 q0 60 44 98.5t110 38.5q68 0 110.5 -38.5t42.5 -98.5q0 -61 -42.5 -99t-110.5 -38t-111 39.5t-43 97.5zM851 1704q0 61 43 99t110 38t110.5 -38.5t43.5 -98.5t-43 -98.5t-111 -38.5q-67 0 -110 39t-43 98z" />
<glyph unicode="&#xd7;" horiz-adv-x="1448" d="M242 250l340 336l-340 340l141 145l344 -340l342 340l139 -151l-338 -334l340 -338l-145 -144l-338 340l-340 -340z" />
<glyph unicode="&#xd8;" horiz-adv-x="1553" d="M74 698q0 340 196.5 550t522.5 210q234 0 401 -119l129 150l125 -103l-135 -157q166 -196 166 -502q0 -338 -196.5 -545t-512.5 -207q-240 0 -422 134l-143 -170l-125 104l149 176q-155 192 -155 479zM391 709q0 -146 47 -252l578 673q-97 76 -232 76q-181 0 -287 -136.5 t-106 -360.5zM532 319q101 -92 244 -92q175 0 281 128.5t106 351.5q0 164 -53 288z" />
<glyph unicode="&#xd9;" horiz-adv-x="1481" d="M147 606v828h324v-832q0 -348 272 -348q267 0 267 336v844h323v-813q0 -646 -602 -646q-584 0 -584 631zM379 1890h281l260 -323h-227z" />
<glyph unicode="&#xda;" horiz-adv-x="1481" d="M147 606v828h324v-832q0 -348 272 -348q267 0 267 336v844h323v-813q0 -646 -602 -646q-584 0 -584 631zM547 1567l260 323h281l-313 -323h-228z" />
<glyph unicode="&#xdb;" horiz-adv-x="1481" d="M147 606v828h324v-832q0 -348 272 -348q267 0 267 336v844h323v-813q0 -646 -602 -646q-584 0 -584 631zM380 1567l235 325h248l236 -325h-207l-158 188l-147 -188h-207z" />
<glyph unicode="&#xdc;" horiz-adv-x="1481" d="M147 606v828h324v-832q0 -348 272 -348q267 0 267 336v844h323v-813q0 -646 -602 -646q-584 0 -584 631zM357 1704q0 60 44 98.5t110 38.5q68 0 110.5 -38.5t42.5 -98.5q0 -61 -42.5 -99t-110.5 -38t-111 39.5t-43 97.5zM816 1704q0 61 43 99t110 38t110.5 -38.5 t43.5 -98.5t-43 -98.5t-111 -38.5q-67 0 -110 39t-43 98z" />
<glyph unicode="&#xdd;" horiz-adv-x="1243" d="M0 1434h369l231 -535q6 -15 33 -117h4q13 72 31 113l235 539h342l-467 -924v-510h-323v504zM362 1534l260 323h281l-313 -323h-228z" />
<glyph unicode="&#xde;" horiz-adv-x="1258" d="M164 0v1434h323v-211h183q542 0 542 -457q0 -216 -155.5 -350.5t-415.5 -134.5h-154v-281h-323zM487 528h127q258 0 258 226q0 221 -258 221h-127v-447z" />
<glyph unicode="&#xdf;" horiz-adv-x="1286" d="M133 0v1049q0 223 137 357t381 134q217 0 343 -109.5t126 -281.5q0 -122 -71.5 -214t-184.5 -126v-4q363 -69 363 -399q0 -180 -126.5 -305.5t-342.5 -125.5q-105 0 -213 33v262q83 -53 176 -53q83 0 132.5 52.5t49.5 144.5q0 116 -89 183.5t-251 72.5v221 q111 8 172.5 68t61.5 159q0 84 -44.5 132t-119.5 48q-184 0 -184 -245v-1053h-316z" />
<glyph unicode="&#xe0;" horiz-adv-x="1102" d="M57 285q0 298 353 344l278 37q0 168 -182 168q-183 0 -348 -109v238q66 34 180.5 60t208.5 26q438 0 438 -437v-612h-299v147h-4q-103 -172 -305 -172q-149 0 -234.5 84.5t-85.5 225.5zM348 322q0 -54 37.5 -88.5t101.5 -34.5q89 0 145 61.5t56 155.5v69l-186 -24 q-154 -20 -154 -139zM234 1509h281l260 -323h-227z" />
<glyph unicode="&#xe1;" horiz-adv-x="1102" d="M57 285q0 298 353 344l278 37q0 168 -182 168q-183 0 -348 -109v238q66 34 180.5 60t208.5 26q438 0 438 -437v-612h-299v147h-4q-103 -172 -305 -172q-149 0 -234.5 84.5t-85.5 225.5zM348 322q0 -54 37.5 -88.5t101.5 -34.5q89 0 145 61.5t56 155.5v69l-186 -24 q-154 -20 -154 -139zM350 1186l260 323h281l-313 -323h-228z" />
<glyph unicode="&#xe2;" horiz-adv-x="1102" d="M57 285q0 298 353 344l278 37q0 168 -182 168q-183 0 -348 -109v238q66 34 180.5 60t208.5 26q438 0 438 -437v-612h-299v147h-4q-103 -172 -305 -172q-149 0 -234.5 84.5t-85.5 225.5zM348 322q0 -54 37.5 -88.5t101.5 -34.5q89 0 145 61.5t56 155.5v69l-186 -24 q-154 -20 -154 -139zM195 1186l235 325h248l236 -325h-207l-158 188l-147 -188h-207z" />
<glyph unicode="&#xe3;" horiz-adv-x="1102" d="M57 285q0 298 353 344l278 37q0 168 -182 168q-183 0 -348 -109v238q66 34 180.5 60t208.5 26q438 0 438 -437v-612h-299v147h-4q-103 -172 -305 -172q-149 0 -234.5 84.5t-85.5 225.5zM348 322q0 -54 37.5 -88.5t101.5 -34.5q89 0 145 61.5t56 155.5v69l-186 -24 q-154 -20 -154 -139zM188 1186q0 139 55 216t154 77q81 0 168 -49q79 -44 120 -44q78 0 78 111h144q0 -140 -55.5 -216.5t-151.5 -76.5q-86 0 -168 43q-89 47 -123 47q-80 0 -80 -108h-141z" />
<glyph unicode="&#xe4;" horiz-adv-x="1102" d="M57 285q0 298 353 344l278 37q0 168 -182 168q-183 0 -348 -109v238q66 34 180.5 60t208.5 26q438 0 438 -437v-612h-299v147h-4q-103 -172 -305 -172q-149 0 -234.5 84.5t-85.5 225.5zM348 322q0 -54 37.5 -88.5t101.5 -34.5q89 0 145 61.5t56 155.5v69l-186 -24 q-154 -20 -154 -139zM175 1323q0 60 44 98.5t110 38.5q68 0 110.5 -38.5t42.5 -98.5q0 -61 -42.5 -99t-110.5 -38t-111 39.5t-43 97.5zM634 1323q0 61 43 99t110 38t110.5 -38.5t43.5 -98.5t-43 -98.5t-111 -38.5q-67 0 -110 39t-43 98z" />
<glyph unicode="&#xe5;" horiz-adv-x="1102" d="M57 285q0 298 353 344l278 37q0 168 -182 168q-183 0 -348 -109v238q66 34 180.5 60t208.5 26q438 0 438 -437v-612h-299v147h-4q-103 -172 -305 -172q-149 0 -234.5 84.5t-85.5 225.5zM348 322q0 -54 37.5 -88.5t101.5 -34.5q89 0 145 61.5t56 155.5v69l-186 -24 q-154 -20 -154 -139zM338 1401q0 101 69.5 161t170.5 60q107 0 173 -59.5t66 -155.5q0 -98 -71.5 -159.5t-172.5 -61.5q-102 0 -168.5 59.5t-66.5 155.5zM477 1405q0 -94 96 -94q45 0 74 27.5t29 66.5q0 41 -28.5 67.5t-74.5 26.5q-96 0 -96 -94z" />
<glyph unicode="&#xe6;" horiz-adv-x="1696" d="M57 287q0 146 96.5 234t276.5 102l256 20q0 191 -184 191q-174 0 -344 -107v236q187 86 370 86q234 0 324 -134h4q132 134 326 134q214 0 336 -133t122 -365v-129h-667q20 -223 282 -223q160 0 297 80v-226q-156 -78 -378 -78q-269 0 -398 179h-4q-141 -179 -362 -179 q-166 0 -259.5 82.5t-93.5 229.5zM346 315q0 -50 39 -83t102 -33q86 0 142.5 59.5t56.5 155.5v45l-156 -13q-184 -15 -184 -131zM973 616h375q0 220 -177 220q-75 0 -131.5 -62t-66.5 -158z" />
<glyph unicode="&#xe7;" horiz-adv-x="983" d="M72 487q0 261 156.5 411.5t418.5 150.5q181 0 262 -48v-268q-99 74 -221 74q-136 0 -215.5 -79.5t-79.5 -219.5q0 -136 76 -213.5t209 -77.5q118 0 231 74v-254q-107 -62 -309 -62q-236 0 -382 143t-146 369zM426 -313q35 -6 72 -6q123 0 123 73q0 66 -111 66 q-13 0 -37 -2v182h172v-82q187 -8 187 -166q0 -207 -318 -207q-46 0 -88 4v138z" />
<glyph unicode="&#xe8;" horiz-adv-x="1108" d="M72 496q0 255 148 404t364 149q224 0 346.5 -133t122.5 -361v-133h-668q16 -223 281 -223q169 0 297 80v-228q-142 -76 -369 -76q-248 0 -385 137.5t-137 383.5zM383 616h377q0 220 -178 220q-76 0 -131.5 -63t-67.5 -157zM254 1509h281l260 -323h-227z" />
<glyph unicode="&#xe9;" horiz-adv-x="1108" d="M72 496q0 255 148 404t364 149q224 0 346.5 -133t122.5 -361v-133h-668q16 -223 281 -223q169 0 297 80v-228q-142 -76 -369 -76q-248 0 -385 137.5t-137 383.5zM383 616h377q0 220 -178 220q-76 0 -131.5 -63t-67.5 -157zM380 1186l260 323h281l-313 -323h-228z" />
<glyph unicode="&#xea;" horiz-adv-x="1108" d="M72 496q0 255 148 404t364 149q224 0 346.5 -133t122.5 -361v-133h-668q16 -223 281 -223q169 0 297 80v-228q-142 -76 -369 -76q-248 0 -385 137.5t-137 383.5zM383 616h377q0 220 -178 220q-76 0 -131.5 -63t-67.5 -157zM230 1186l235 325h248l236 -325h-207l-158 188 l-147 -188h-207z" />
<glyph unicode="&#xeb;" horiz-adv-x="1108" d="M72 496q0 255 148 404t364 149q224 0 346.5 -133t122.5 -361v-133h-668q16 -223 281 -223q169 0 297 80v-228q-142 -76 -369 -76q-248 0 -385 137.5t-137 383.5zM383 616h377q0 220 -178 220q-76 0 -131.5 -63t-67.5 -157zM196 1323q0 60 44 98.5t110 38.5 q68 0 110.5 -38.5t42.5 -98.5q0 -61 -42.5 -99t-110.5 -38t-111 39.5t-43 97.5zM655 1323q0 61 43 99t110 38t110.5 -38.5t43.5 -98.5t-43 -98.5t-111 -38.5q-67 0 -110 39t-43 98z" />
<glyph unicode="&#xec;" horiz-adv-x="582" d="M133 0v1024h316v-1024h-316zM-27 1509h281l260 -323h-227z" />
<glyph unicode="&#xed;" horiz-adv-x="582" d="M133 0v1024h316v-1024h-316zM71 1186l260 323h281l-313 -323h-228z" />
<glyph unicode="&#xee;" horiz-adv-x="582" d="M133 0v1024h316v-1024h-316zM-62 1186l235 325h248l236 -325h-207l-158 188l-147 -188h-207z" />
<glyph unicode="&#xef;" horiz-adv-x="582" d="M133 0v1024h316v-1024h-316zM-86 1323q0 60 44 98.5t110 38.5q68 0 110.5 -38.5t42.5 -98.5q0 -61 -42.5 -99t-110.5 -38t-111 39.5t-43 97.5zM373 1323q0 61 43 99t110 38t110.5 -38.5t43.5 -98.5t-43 -98.5t-111 -38.5q-67 0 -110 39t-43 98z" />
<glyph unicode="&#xf0;" horiz-adv-x="1215" d="M72 514q0 231 132.5 378.5t346.5 147.5q117 0 205 -75l4 2q-84 147 -195 237l-291 -143l-81 141l241 115q-157 125 -270 199h352q11 -6 131 -97l273 133l77 -137l-215 -104q361 -291 361 -748q0 -260 -150 -424t-395 -164q-248 0 -387 144.5t-139 394.5zM393 514 q0 -140 57 -218.5t158 -78.5q98 0 155.5 81.5t57.5 221.5q0 287 -209 287q-103 0 -161 -78.5t-58 -214.5z" />
<glyph unicode="&#xf1;" horiz-adv-x="1239" d="M133 0v1024h316v-162h4q113 187 329 187q340 0 340 -422v-627h-315v569q0 238 -170 238q-82 0 -135 -63t-53 -160v-584h-316zM263 1186q0 139 55 216t154 77q81 0 168 -49q79 -44 120 -44q78 0 78 111h144q0 -140 -55.5 -216.5t-151.5 -76.5q-86 0 -168 43 q-89 47 -123 47q-80 0 -80 -108h-141z" />
<glyph unicode="&#xf2;" horiz-adv-x="1251" d="M72 508q0 254 152 397.5t411 143.5q255 0 400 -143.5t145 -379.5q0 -255 -149.5 -403t-409.5 -148q-256 0 -402.5 143.5t-146.5 389.5zM393 512q0 -295 238 -295q227 0 227 303q0 287 -229 287q-112 0 -174 -77t-62 -218zM311 1509h281l260 -323h-227z" />
<glyph unicode="&#xf3;" horiz-adv-x="1251" d="M72 508q0 254 152 397.5t411 143.5q255 0 400 -143.5t145 -379.5q0 -255 -149.5 -403t-409.5 -148q-256 0 -402.5 143.5t-146.5 389.5zM393 512q0 -295 238 -295q227 0 227 303q0 287 -229 287q-112 0 -174 -77t-62 -218zM427 1186l260 323h281l-313 -323h-228z" />
<glyph unicode="&#xf4;" horiz-adv-x="1251" d="M72 508q0 254 152 397.5t411 143.5q255 0 400 -143.5t145 -379.5q0 -255 -149.5 -403t-409.5 -148q-256 0 -402.5 143.5t-146.5 389.5zM393 512q0 -295 238 -295q227 0 227 303q0 287 -229 287q-112 0 -174 -77t-62 -218zM269 1186l235 325h248l236 -325h-207l-158 188 l-147 -188h-207z" />
<glyph unicode="&#xf5;" horiz-adv-x="1251" d="M72 508q0 254 152 397.5t411 143.5q255 0 400 -143.5t145 -379.5q0 -255 -149.5 -403t-409.5 -148q-256 0 -402.5 143.5t-146.5 389.5zM393 512q0 -295 238 -295q227 0 227 303q0 287 -229 287q-112 0 -174 -77t-62 -218zM266 1186q0 139 55 216t154 77q81 0 168 -49 q79 -44 120 -44q78 0 78 111h144q0 -140 -55.5 -216.5t-151.5 -76.5q-86 0 -168 43q-89 47 -123 47q-80 0 -80 -108h-141z" />
<glyph unicode="&#xf6;" horiz-adv-x="1251" d="M72 508q0 254 152 397.5t411 143.5q255 0 400 -143.5t145 -379.5q0 -255 -149.5 -403t-409.5 -148q-256 0 -402.5 143.5t-146.5 389.5zM393 512q0 -295 238 -295q227 0 227 303q0 287 -229 287q-112 0 -174 -77t-62 -218zM247 1323q0 60 44 98.5t110 38.5 q68 0 110.5 -38.5t42.5 -98.5q0 -61 -42.5 -99t-110.5 -38t-111 39.5t-43 97.5zM706 1323q0 61 43 99t110 38t110.5 -38.5t43.5 -98.5t-43 -98.5t-111 -38.5q-67 0 -110 39t-43 98z" />
<glyph unicode="&#xf7;" horiz-adv-x="1448" d="M238 485v203h974v-203h-974zM586 182q0 62 39.5 104t101.5 42t99.5 -40.5t37.5 -103.5q0 -61 -40 -99t-97 -38q-59 0 -100 39t-41 96zM590 983q0 62 39.5 103.5t101.5 41.5t99.5 -40t37.5 -103q0 -61 -40.5 -100t-96.5 -39q-59 0 -100 40t-41 97z" />
<glyph unicode="&#xf8;" horiz-adv-x="1252" d="M39 29l137 143q-104 141 -104 338q0 253 152.5 397t412.5 144q179 0 311 -82l139 147l119 -106l-139 -146q113 -143 113 -338q0 -259 -148 -404t-411 -145q-198 0 -328 86l-135 -141zM373 514q0 -73 18 -121l381 398q-56 40 -141 40q-258 0 -258 -317zM469 242 q61 -45 160 -45q252 0 252 323q0 74 -19 131z" />
<glyph unicode="&#xf9;" horiz-adv-x="1239" d="M117 406v618h315v-590q0 -217 172 -217q85 0 136 59.5t51 161.5v586h315v-1024h-315v156h-5q-117 -181 -313 -181q-356 0 -356 431zM243 1509h281l260 -323h-227z" />
<glyph unicode="&#xfa;" horiz-adv-x="1239" d="M117 406v618h315v-590q0 -217 172 -217q85 0 136 59.5t51 161.5v586h315v-1024h-315v156h-5q-117 -181 -313 -181q-356 0 -356 431zM436 1186l260 323h281l-313 -323h-228z" />
<glyph unicode="&#xfb;" horiz-adv-x="1239" d="M117 406v618h315v-590q0 -217 172 -217q85 0 136 59.5t51 161.5v586h315v-1024h-315v156h-5q-117 -181 -313 -181q-356 0 -356 431zM251 1186l235 325h248l236 -325h-207l-158 188l-147 -188h-207z" />
<glyph unicode="&#xfc;" horiz-adv-x="1239" d="M117 406v618h315v-590q0 -217 172 -217q85 0 136 59.5t51 161.5v586h315v-1024h-315v156h-5q-117 -181 -313 -181q-356 0 -356 431zM232 1323q0 60 44 98.5t110 38.5q68 0 110.5 -38.5t42.5 -98.5q0 -61 -42.5 -99t-110.5 -38t-111 39.5t-43 97.5zM691 1323q0 61 43 99 t110 38t110.5 -38.5t43.5 -98.5t-43 -98.5t-111 -38.5q-67 0 -110 39t-43 98z" />
<glyph unicode="&#xfd;" horiz-adv-x="1102" d="M-4 1024h350l191 -623q18 -58 28 -137h4q9 58 33 135l193 625h313l-416 -1106q-150 -399 -452 -399q-115 0 -189 26v252q63 -37 137 -37q122 0 170 115l54 127zM293 1186l260 323h281l-313 -323h-228z" />
<glyph unicode="&#xfe;" horiz-adv-x="1270" d="M133 -471v1987h316v-646h4q117 179 329 179q199 0 307.5 -136.5t108.5 -371.5q0 -256 -126.5 -411t-336.5 -155q-185 0 -282 144h-4v-590h-316zM444 457q0 -106 56 -173t147 -67q108 0 167.5 83.5t59.5 236.5q0 270 -210 270q-97 0 -158.5 -73.5t-61.5 -194.5v-82z" />
<glyph unicode="&#xff;" horiz-adv-x="1102" d="M-4 1024h350l191 -623q18 -58 28 -137h4q9 58 33 135l193 625h313l-416 -1106q-150 -399 -452 -399q-115 0 -189 26v252q63 -37 137 -37q122 0 170 115l54 127zM181 1323q0 60 44 98.5t110 38.5q68 0 110.5 -38.5t42.5 -98.5q0 -61 -42.5 -99t-110.5 -38t-111 39.5 t-43 97.5zM640 1323q0 61 43 99t110 38t110.5 -38.5t43.5 -98.5t-43 -98.5t-111 -38.5q-67 0 -110 39t-43 98z" />
<glyph unicode="&#x131;" horiz-adv-x="582" d="M133 0v1024h316v-1024h-316z" />
<glyph unicode="&#x152;" horiz-adv-x="1925" d="M74 698q0 342 194 551t516 209q63 0 151 -12q89 -12 109 -12h783v-263h-504v-323h469v-264h-469v-322h537v-262h-828q-26 0 -117 -12q-90 -13 -157 -13q-307 0 -495.5 203t-188.5 520zM416 711q0 -208 101 -332.5t261 -124.5q116 0 213 51v823q-86 52 -209 52 q-168 0 -267 -129.5t-99 -339.5z" />
<glyph unicode="&#x153;" horiz-adv-x="1893" d="M72 508q0 251 147 397t389 146q134 0 238.5 -49.5t154.5 -127.5h5q118 175 376 175q213 0 334 -134t121 -358v-135h-670q14 -223 283 -223q167 0 295 80v-228q-142 -76 -346 -76q-252 0 -391 189h-4q-137 -187 -408 -187q-234 0 -379 143t-145 388zM393 512 q0 -293 236 -293q229 0 229 297q0 138 -59.5 214.5t-167.5 76.5q-113 0 -175.5 -77.5t-62.5 -217.5zM1167 616h375q0 220 -174 220q-80 0 -135 -63.5t-66 -156.5z" />
<glyph unicode="&#x178;" horiz-adv-x="1243" d="M0 1434h369l231 -535q6 -15 33 -117h4q13 72 31 113l235 539h342l-467 -924v-510h-323v504zM246 1704q0 60 44 98.5t110 38.5q68 0 110.5 -38.5t42.5 -98.5q0 -61 -42.5 -99t-110.5 -38t-111 39.5t-43 97.5zM705 1704q0 61 43 99t110 38t110.5 -38.5t43.5 -98.5 t-43 -98.5t-111 -38.5q-67 0 -110 39t-43 98z" />
<glyph unicode="&#x2c6;" horiz-adv-x="785" d="M31 1186l235 325h248l236 -325h-207l-158 188l-147 -188h-207z" />
<glyph unicode="&#x2da;" horiz-adv-x="555" d="M39 1401q0 101 69.5 161t170.5 60q107 0 173 -59.5t66 -155.5q0 -98 -71.5 -159.5t-172.5 -61.5q-102 0 -168.5 59.5t-66.5 155.5zM178 1405q0 -94 96 -94q45 0 74 27.5t29 66.5q0 41 -28.5 67.5t-74.5 26.5q-96 0 -96 -94z" />
<glyph unicode="&#x2dc;" horiz-adv-x="785" d="M35 1186q0 139 55 216t154 77q81 0 168 -49q79 -44 120 -44q78 0 78 111h144q0 -140 -55.5 -216.5t-151.5 -76.5q-86 0 -168 43q-89 47 -123 47q-80 0 -80 -108h-141z" />
<glyph unicode="&#x2010;" horiz-adv-x="828" d="M143 436v221h547v-221h-547z" />
<glyph unicode="&#x2013;" horiz-adv-x="1024" d="M0 436v221h1024v-221h-1024z" />
<glyph unicode="&#x2014;" horiz-adv-x="2048" d="M0 436v221h2048v-221h-2048z" />
<glyph unicode="&#x2018;" horiz-adv-x="594" d="M96 1024l189 444h196l-110 -444h-275z" />
<glyph unicode="&#x2019;" horiz-adv-x="594" d="M113 1024l114 444h273l-193 -444h-194z" />
<glyph unicode="&#x201a;" horiz-adv-x="594" d="M90 -225l115 444h272l-192 -444h-195z" />
<glyph unicode="&#x201c;" horiz-adv-x="1010" d="M96 1024l189 444h196l-110 -444h-275zM512 1024l190 444h195l-113 -444h-272z" />
<glyph unicode="&#x201d;" horiz-adv-x="1010" d="M113 1024l114 444h273l-193 -444h-194zM528 1024l113 444h274l-190 -444h-197z" />
<glyph unicode="&#x201e;" horiz-adv-x="1010" d="M90 -225l115 444h272l-192 -444h-195zM506 -225l112 444h275l-193 -444h-194z" />
<glyph unicode="&#x2022;" horiz-adv-x="865" d="M160 557q0 114 80 194t194 80t195.5 -80.5t81.5 -193.5t-81.5 -194.5t-195.5 -81.5q-113 0 -193.5 81t-80.5 195z" />
<glyph unicode="&#x2026;" horiz-adv-x="1868" d="M129 143q0 72 51.5 118t130.5 46q81 0 133 -46.5t52 -117.5q0 -73 -51.5 -119.5t-135.5 -46.5q-78 0 -129 48t-51 118zM752 143q0 72 51.5 118t130.5 46q81 0 132.5 -46.5t51.5 -117.5q0 -73 -51.5 -119.5t-134.5 -46.5q-78 0 -129 48t-51 118zM1372 143q0 72 52.5 118 t131.5 46q81 0 133 -46.5t52 -117.5q0 -73 -51.5 -119.5t-135.5 -46.5q-78 0 -130 48t-52 118z" />
<glyph unicode="&#x2039;" horiz-adv-x="705" d="M53 537l330 344h268l-334 -344l334 -336h-268z" />
<glyph unicode="&#x203a;" horiz-adv-x="705" d="M53 201l334 336l-332 344h267l329 -344l-329 -336h-269z" />
<glyph unicode="&#x2044;" horiz-adv-x="719" d="M-203 0l891 1434h244l-891 -1434h-244z" />
<glyph unicode="&#x2215;" horiz-adv-x="719" d="M-203 0l891 1434h244l-891 -1434h-244z" />
<glyph unicode="&#x20ac;" d="M109 453v190h96q-2 25 -2 59q0 18 4 82h-98v187h127q55 231 208 359t381 128q167 0 269 -55v-260q-112 88 -254 88q-110 0 -193.5 -71t-118.5 -189h426v-187h-456q-4 -59 -4 -82q0 -27 2 -59h458v-190h-428q75 -252 299 -252q141 0 269 90v-246q-118 -72 -308 -72 q-225 0 -367 124.5t-188 355.5h-122z" />
<glyph unicode="&#x2122;" horiz-adv-x="1579" d="M76 1311v123h506v-123h-179v-539h-155v539h-172zM647 772v662h217l156 -453h4l168 453h203v-662h-150v445h-4l-160 -445h-135l-145 445h-6v-445h-148z" />
<glyph unicode="&#xe000;" horiz-adv-x="1025" d="M0 1025h1025v-1025h-1025v1025z" />
<glyph unicode="&#xfb01;" horiz-adv-x="1366" d="M41 795v229h172v127q0 175 112.5 282t305.5 107q93 0 155 -20v-248q-57 28 -114 28q-142 0 -142 -165v-111h232v-229h-232v-795h-317v795h-172zM895 1350q0 71 51 116t131 45q81 0 132 -45t51 -116t-50.5 -117.5t-132.5 -46.5q-80 0 -131 47.5t-51 116.5zM918 0v1024h315 v-1024h-315z" />
<glyph unicode="&#xfb02;" horiz-adv-x="1366" d="M41 795v229h172v127q0 175 112.5 282t305.5 107q93 0 155 -20v-248q-57 28 -114 28q-142 0 -142 -165v-111h232v-229h-232v-795h-317v795h-172zM918 0v1516h315v-1516h-315z" />
<glyph unicode="&#xfb03;" horiz-adv-x="2152" d="M1681 1350q0 71 51 116t131 45q81 0 131.5 -45t50.5 -116q0 -72 -50.5 -118t-131.5 -46q-80 0 -131 47.5t-51 116.5zM1703 0v1024h316v-1024h-316zM830 791v233h172v127q0 175 114 282t310 107q96 0 160 -20v-246q-61 24 -117 24q-152 0 -152 -165v-109h234v-233h-234 v-791h-315v791h-172zM45 791v233h172v127q0 175 114 282t310 107q96 0 160 -20v-246q-61 24 -117 24q-152 0 -152 -165v-109h234v-233h-234v-791h-315v791h-172z" />
<glyph unicode="&#xfb04;" horiz-adv-x="2152" d="M1703 0v1516h316v-1516h-316zM830 791v233h172v127q0 175 114 282t310 107q96 0 160 -20v-246q-61 24 -117 24q-152 0 -152 -165v-109h234v-233h-234v-791h-315v791h-172zM45 791v233h172v127q0 175 114 282t310 107q96 0 160 -20v-246q-61 24 -117 24q-152 0 -152 -165 v-109h234v-233h-234v-791h-315v791h-172z" />
<glyph horiz-adv-x="807" d="M143 1192v180l406 82v-698h172v-172h-563v172h176v477z" />
<glyph horiz-adv-x="828" d="M117 584v157l248 234q77 73 95.5 110t18.5 82q0 42 -28.5 69.5t-75.5 27.5q-98 0 -211 -103v215q118 78 250 78q136 0 215.5 -68.5t79.5 -189.5q0 -70 -37.5 -141t-179.5 -197l-105 -92v-4h334v-178h-604z" />
<glyph horiz-adv-x="828" d="M131 616v181q107 -68 221 -68q150 0 150 102q0 103 -172 103h-117v166h113q149 0 149 96q0 90 -119 90q-107 0 -198 -65v176q99 57 239 57q134 0 211.5 -60.5t77.5 -160.5q0 -147 -143 -195v-4q172 -41 172 -198q0 -123 -98 -198t-257 -75q-133 0 -229 53z" />
<glyph horiz-adv-x="856" d="M68 760v141l350 533h258v-519h110v-155h-110v-176h-213v176h-395zM252 915h211v263q0 47 4 84h-8q-14 -36 -39 -76z" />
</font>
</defs></svg> 